Earnin - Data Assignment
…
There are 2,651 users in the attribution table, however 887 users had a device already registered a device before a campaign.

library(dplyr)
FT_Campaigns <- Find %>% group_by(campaign)%>%tally(sort = TRUE)
FT_Campaigns

## # A tibble: 100 x 2
##    campaign     n
##       <chr> <int>
##  1   5IHLGC    31
##  2   MOTVAN    31
##  3   FE91LN    28
##  4   83RCJF    27
##  5   ZZGRSM    27
##  6   0837KH    25
##  7   HLWXVF    25
##  8   1BRIGC    24
##  9   6HBW2A    24
## 10   WL07ZB    24
## # ... with 90 more rows
…
